Igor Michels - Igor Cortes - Séries em Plataformas de Streaming
…
attr(,"problems")
# A tibble: 85 x 5
     row col   expected   actual    file          
   <int> <chr> <chr>      <chr>     <chr>         
 1    63 <NA>  11 columns 1 columns 'tv_shows.csv'
 2    69 <NA>  11 columns 1 columns 'tv_shows.csv'
 3   423 <NA>  11 columns 1 columns 'tv_shows.csv'
 4   453 <NA>  11 columns 1 columns 'tv_shows.csv'
 5   528 <NA>  11 columns 1 columns 'tv_shows.csv'
 6   569 <NA>  11 columns 1 columns 'tv_shows.csv'
 7   611 <NA>  11 columns 1 columns 'tv_shows.csv'
 8   615 <NA>  11 columns 1 columns 'tv_shows.csv'
 9   672 <NA>  11 columns 1 columns 'tv_shows.csv'
10   734 <NA>  11 columns 1 columns 'tv_shows.csv'
# ... with 75 more rows
…
